^E:\GAMEDEV\C++\HOMEWORK\PROJECT_1\HOMEWORK_1\HOMEWORK_1.CPP
E:\GAMEDEV\C++\HOMEWORK\PROJECT_1\HOMEWORK_1\DEBUG\VC142.PDB
E:\GAMEDEV\C++\HOMEWORK\PROJECT_1\HOMEWORK_1\DEBUG\VC142.IDB
E:\GAMEDEV\C++\HOMEWORK\PROJECT_1\HOMEWORK_1\DEBUG\HOMEWORK_1.OBJ
